<svg xmlns="http://www.w3.org/2000/svg" width="206" height="42" viewBox="0 0 206 42">
  <g id="logo-white" transform="translate(-19.916 -165.758)">
    <text id="ViewPlus" transform="translate(71.916 199.758)" fill="#fff" font-size="33" font-family="ArialRoundedMTBold, Arial Rounded MT"><tspan x="0" y="0">View</tspan><tspan y="0" font-size="36">Plus</tspan></text>
    <g id="Group_5" data-name="Group 5" transform="translate(19.916 165.758)">
      <g id="Group_1" data-name="Group 1" transform="translate(0 22.113)">
        <path id="Path_1" data-name="Path 1" d="M356.549,256.352s5.888-1.316,8.865,1.289a18.6,18.6,0,0,1,2.692,9.076v.081c.136,2.509.027,4.517.027,4.517H360.1s1.441-6.647-.449-11.314A6.816,6.816,0,0,0,356.549,256.352Z" transform="translate(-348.622 -251.428)" fill="#fff"/>
        <path id="Path_2" data-name="Path 2" d="M330.409,249.689v-8.533s10.261-2.358,16.792,5.9c1.621,2.05,2.448,5.141,2.692,9.076v.081a13.5,13.5,0,0,0-8.457-6.8A20.312,20.312,0,0,0,330.409,249.689Z" transform="translate(-330.409 -240.845)" fill="#fff"/>
      </g>
      <g id="Group_2" data-name="Group 2" transform="translate(24.447)">
        <path id="Path_3" data-name="Path 3" d="M422.652,182.721s-5.887,1.316-8.865-1.289a18.6,18.6,0,0,1-2.692-9.076v-.081c-.136-2.51-.027-4.518-.027-4.518H419.1s-1.441,6.647.449,11.314A6.815,6.815,0,0,0,422.652,182.721Z" transform="translate(-411.026 -167.758)" fill="#fff"/>
        <path id="Path_4" data-name="Path 4" d="M430.736,189.214v8.533s-10.261,2.357-16.792-5.9c-1.621-2.05-2.447-5.141-2.692-9.076v-.081a13.5,13.5,0,0,0,8.457,6.8A20.309,20.309,0,0,0,430.736,189.214Z" transform="translate(-411.184 -178.171)" fill="#fff"/>
      </g>
      <g id="Group_3" data-name="Group 3" transform="translate(23.681 22.94)">
        <path id="Path_5" data-name="Path 5" d="M439.951,243.584v8.431s-6.463-2.033-11.1-.907c-.34.081-.662.758-.974.867-1.564.556-2.121,2.076-2.923,3.581,0,0-1.319-5.874,1.292-8.845a18.617,18.617,0,0,1,9.1-3.066h.082c.367-.027.707-.041,1.047-.054a2,2,0,0,1,.285-.014Z" transform="translate(-419.731 -243.577)" fill="#fff"/>
        <path id="Path_6" data-name="Path 6" d="M425.251,243.577l-.013.014a15.23,15.23,0,0,0-7.6,8.1c-.1.258-.177.516-.258.773-.816,2.794-.857,5.63-.15,10.174h-8.553s-.014-.068-.027-.217a21.95,21.95,0,0,1,1.278-10.405l.082-.2a12.731,12.731,0,0,1,.884-1.709,12.075,12.075,0,0,1,1.251-1.736,12.349,12.349,0,0,1,2.556-2.225,15.694,15.694,0,0,1,2.515-1.343c.027-.013.054-.013.082-.027A22.726,22.726,0,0,1,425.251,243.577Z" transform="translate(-408.499 -243.577)" fill="#fff"/>
      </g>
      <g id="Group_4" data-name="Group 4" transform="translate(0.1)">
        <path id="Path_7" data-name="Path 7" d="M330.738,203.135V194.7s6.463,2.033,11.1.907c.34-.081.662-.758.975-.867,1.564-.556,2.121-2.076,2.923-3.581,0,0,1.319,5.874-1.292,8.845a18.617,18.617,0,0,1-9.1,3.066h-.082c-.367.027-.707.041-1.047.054a2.013,2.013,0,0,1-.286.014Z" transform="translate(-330.738 -184.082)" fill="#fff"/>
        <path id="Path_8" data-name="Path 8" d="M342.172,186.818l.014-.014a15.232,15.232,0,0,0,7.6-8.1c.1-.258.177-.515.258-.773.816-2.795.856-5.63.15-10.175h8.552s.014.068.027.217A21.945,21.945,0,0,1,357.5,178.38l-.082.2a12.729,12.729,0,0,1-.884,1.709,12.082,12.082,0,0,1-1.251,1.736,12.351,12.351,0,0,1-2.556,2.225,15.689,15.689,0,0,1-2.515,1.343c-.027.014-.055.014-.082.027A22.728,22.728,0,0,1,342.172,186.818Z" transform="translate(-338.705 -167.758)" fill="#fff"/>
      </g>
    </g>
  </g>
</svg>
