<svg id="edit" xmlns="http://www.w3.org/2000/svg" width="24" height="24" viewBox="0 0 24 24">
  <path id="Path_19377" data-name="Path 19377" d="M14.058,9.019l.92.92L5.919,19H5v-.92l9.058-9.058M17.657,3a1,1,0,0,0-.7.29l-1.83,1.83,3.749,3.749,1.83-1.83a1,1,0,0,0,0-1.41l-2.34-2.34A.982.982,0,0,0,17.657,3Zm-3.6,3.189L3,17.247V21H6.749L17.807,9.939,14.058,6.189Z" transform="translate(0.001)" fill="#002e42"/>
  <rect id="Rectangle_2293" data-name="Rectangle 2293" width="24" height="24" fill="none"/>
</svg>
