<svg xmlns="http://www.w3.org/2000/svg" id="prefix__speed-24px" width="24" height="24" viewBox="0 0 24 24">
    <defs>
        <style>
            .prefix__cls-2{fill:#fff}
        </style>
    </defs>
    <path id="prefix__Path_19294" d="M0 0h24v24H0z" data-name="Path 19294" style="fill:none"/>
    <path id="prefix__Path_19295" d="M20.38 8.57l-1.23 1.85a8 8 0 0 1-.22 7.58H5.07A8 8 0 0 1 15.58 6.85l1.85-1.23A10 10 0 0 0 3.35 19a2 2 0 0 0 1.72 1h13.85a2 2 0 0 0 1.74-1 10 10 0 0 0-.27-10.44z" class="prefix__cls-2" data-name="Path 19295"/>
    <path id="prefix__Path_19296" d="M10.59 15.41a2 2 0 0 0 2.83 0l5.66-8.49-8.49 5.66a2 2 0 0 0 0 2.83z" class="prefix__cls-2" data-name="Path 19296"/>
</svg>
