<svg xmlns="http://www.w3.org/2000/svg" id="prefix__trending_up-24px" width="24" height="24" viewBox="0 0 24 24">
    <path id="prefix__Path_19301" d="M0 0h24v24H0z" data-name="Path 19301" style="fill:none"/>
    <path id="prefix__Path_19302" d="M16 6l2.29 2.29-4.88 4.88-4-4L2 16.59 3.41 18l6-6 4 4 6.3-6.29L22 12V6z" data-name="Path 19302" style="fill:#fff"/>
</svg>
